This is BibTeX, Version 0.99d (TeX Live 2017/W32TeX)
Capacity: max_strings=100000, hash_size=100000, hash_prime=85009
The top-level auxiliary file: TFG.aux
The style file: biblatex.bst
Reallocated glb_str_ptr (elt_size=4) to 20 items from 10.
Reallocated global_strs (elt_size=20001) to 20 items from 10.
Reallocated glb_str_end (elt_size=4) to 20 items from 10.
Reallocated singl_function (elt_size=4) to 100 items from 50.
Reallocated singl_function (elt_size=4) to 100 items from 50.
Reallocated singl_function (elt_size=4) to 100 items from 50.
Reallocated wiz_functions (elt_size=4) to 6000 items from 3000.
Reallocated singl_function (elt_size=4) to 100 items from 50.
Reallocated singl_function (elt_size=4) to 100 items from 50.
Reallocated singl_function (elt_size=4) to 100 items from 50.
Reallocated singl_function (elt_size=4) to 100 items from 50.
Reallocated singl_function (elt_size=4) to 100 items from 50.
Reallocated singl_function (elt_size=4) to 100 items from 50.
Reallocated singl_function (elt_size=4) to 100 items from 50.
Database file #1: TFG-blx.bib
Database file #2: biblio.bib
Warning--I didn't find a database entry for "kaiminghe"
Warning--I didn't find a database entry for "DevBox"
Biblatex version: 3.8
Reallocated wiz_functions (elt_size=4) to 9000 items from 6000.
Reallocated singl_function (elt_size=4) to 100 items from 50.
You've used 19 entries,
            6268 wiz_defined-function locations,
            1280 strings with 11415 characters,
and the built_in function-call counts, 95208 in all, are:
= -- 6487
> -- 1746
< -- 377
+ -- 2498
- -- 716
* -- 6698
:= -- 9976
add.period$ -- 0
call.type$ -- 19
change.case$ -- 165
chr.to.int$ -- 36
cite$ -- 36
duplicate$ -- 10692
empty$ -- 8959
format.name$ -- 1157
if$ -- 19327
int.to.chr$ -- 0
int.to.str$ -- 39
missing$ -- 0
newline$ -- 562
num.names$ -- 666
pop$ -- 6286
preamble$ -- 1
purify$ -- 289
quote$ -- 0
skip$ -- 2741
stack$ -- 0
substring$ -- 10556
swap$ -- 2347
text.length$ -- 394
text.prefix$ -- 1
top$ -- 1
type$ -- 634
warning$ -- 0
while$ -- 1258
width$ -- 0
write$ -- 544
(There were 2 warnings)
