\relax 
\providecommand\hyper@newdestlabel[2]{}
\AC@reset@newl@bel
\bibstyle{biblatex}
\bibdata{TFG-blx,biblio}
\citation{biblatex-control}
\abx@aux@refcontext{none/global//global/global}
\providecommand\HyperFirstAtBeginDocument{\AtBeginDocument}
\HyperFirstAtBeginDocument{\ifx\hyper@anchor\@undefined
\global\let\oldcontentsline\contentsline
\gdef\contentsline#1#2#3#4{\oldcontentsline{#1}{#2}{#3}}
\global\let\oldnewlabel\newlabel
\gdef\newlabel#1#2{\newlabelxx{#1}#2}
\gdef\newlabelxx#1#2#3#4#5#6{\oldnewlabel{#1}{{#2}{#3}}}
\AtEndDocument{\ifx\hyper@anchor\@undefined
\let\contentsline\oldcontentsline
\let\newlabel\oldnewlabel
\fi}
\fi}
\global\let\hyper@last\relax 
\gdef\HyperFirstAtBeginDocument#1{#1}
\providecommand\HyField@AuxAddToFields[1]{}
\providecommand\HyField@AuxAddToCoFields[2]{}
\@writefile{toc}{\boolfalse {citerequest}\boolfalse {citetracker}\boolfalse {pagetracker}\boolfalse {backtracker}\relax }
\@writefile{lof}{\boolfalse {citerequest}\boolfalse {citetracker}\boolfalse {pagetracker}\boolfalse {backtracker}\relax }
\@writefile{lot}{\boolfalse {citerequest}\boolfalse {citetracker}\boolfalse {pagetracker}\boolfalse {backtracker}\relax }
\select@language{english}
\@writefile{toc}{\defcounter {refsection}{0}\relax }\@writefile{toc}{\select@language{english}}
\@writefile{lof}{\defcounter {refsection}{0}\relax }\@writefile{lof}{\select@language{english}}
\@writefile{lot}{\defcounter {refsection}{0}\relax }\@writefile{lot}{\select@language{english}}
\@writefile{lol}{\defcounter {refsection}{0}\relax }\@writefile{lol}{\select@language{english}}
\@writefile{toc}{\contentsline {chapter}{Abstract}{v}{chapter*.2}}
\@writefile{lof}{\addvspace {10\p@ }}
\@writefile{lot}{\addvspace {10\p@ }}
\acronymused{CNN}
\@writefile{toc}{\contentsline {chapter}{Contents}{vii}{chapter*.3}}
\acronymused{CNN}
\@writefile{toc}{\contentsline {chapter}{List of Figures}{ix}{chapter*.4}}
\acronymused{CUDA}
\acronymused{GPU}
\acronymused{CPU}
\@writefile{toc}{\contentsline {chapter}{List of Tables}{xi}{chapter*.5}}
\@writefile{toc}{\contentsline {chapter}{List of acronyms}{xv}{chapter*.7}}
\@writefile{lof}{\addvspace {10\p@ }}
\@writefile{lot}{\addvspace {10\p@ }}
\newacro{1D}[\AC@hyperlink{1D}{1D}]{one-dimensional}
\newacro{2D}[\AC@hyperlink{2D}{2D}]{two-dimensional}
\newacro{2.5D}[\AC@hyperlink{2.5D}{2.5D}]{two-and-a-half-dimensional}
\newacro{3D}[\AC@hyperlink{3D}{3D}]{three-dimensional}
\newacro{Adam}[\AC@hyperlink{Adam}{Adam}]{Adaptive Moment Estimation}
\newacro{AMT}[\AC@hyperlink{AMT}{AMT}]{Amazon Mechanical Turk}
\newacro{ANN}[\AC@hyperlink{ANN}{ANN}]{Artificial Neural Network}
\newacro{API}[\AC@hyperlink{API}{API}]{Application Program Interface}
\newacro{BRIEF}[\AC@hyperlink{BRIEF}{BRIEF}]{Binary Robust Independent Elementary Features}
\newacro{BRISK}[\AC@hyperlink{BRISK}{BRISK}]{Binary Robust Invariant Scalable Keypoints}
\newacro{BVLC}[\AC@hyperlink{BVLC}{BVLC}]{Berkeley Vision and Learning Center}
\newacro{CAD}[\AC@hyperlink{CAD}{CAD}]{Computer Aided Design}
\newacro{CDBN}[\AC@hyperlink{CDBN}{CDBN}]{Convolutional Deep Belief Network}
\newacro{CIFAR}[\AC@hyperlink{CIFAR}{CIFAR}]{Canadian Institute for Advanced Research}
\newacro{CLI}[\AC@hyperlink{CLI}{CLI}]{Command Line Interface}
\newacro{CN}[\AC@hyperlink{CN}{CN}]{Computational Network}
\newacro{CNN}[\AC@hyperlink{CNN}{CNN}]{Convolutional Neural Network}
\newacro{CNTK}[\AC@hyperlink{CNTK}{CNTK}]{Computational Network Toolkit}
\newacro{CPU}[\AC@hyperlink{CPU}{CPU}]{Central Processing Unit}
\newacro{CSO}[\AC@hyperlink{CSO}{CSO}]{Computer Science and Operations}
\newacro{CUDA}[\AC@hyperlink{CUDA}{CUDA}]{Compute Unified Device Architecture}
\newacro{GPGPU}[\AC@hyperlink{GPGPU}{GPGPU}]{General-Purpose computing on Graphics Processing Units}
\newacro{cuDNN}[\AC@hyperlink{cuDNN}{cuDNN}]{CUDA Deep Neural Network}
\newacro{FAIR}[\AC@hyperlink{FAIR}{FAIR}]{Facebook Artificial Intelligence Research}
\newacro{FPGA}[\AC@hyperlink{FPGA}{FPGA}]{Field Programmable Gate Array}
\newacro{FREAK}[\AC@hyperlink{FREAK}{FREAK}]{Fast Retina Keypoint}
\newacro{GCC}[\AC@hyperlink{GCC}{GCC}]{GNU Compiler Collection}
\newacro{GNU GPLv3}[\AC@hyperlink{GNU GPLv3}{GNU GPLv3}]{GNU General Public License v3.0}
\newacro{GPU}[\AC@hyperlink{GPU}{GPU}]{Graphics Processing Unit}
\newacro{GUI}[\AC@hyperlink{GUI}{GUI}]{Graphical User Interface}
\newacro{HDD}[\AC@hyperlink{HDD}{HDD}]{Hard Disk Drive}
\newacro{IR}[\AC@hyperlink{IR}{IR}]{Infrarred}
\newacro{JIT}[\AC@hyperlink{JIT}{JIT}]{Just In Time}
\newacro{LIDAR}[\AC@hyperlink{LIDAR}{LIDAR}]{Light Detection and Ranging}
\newacro{MEL}[\AC@hyperlink{MEL}{MEL}]{Model Editing Language}
\newacro{MLP}[\AC@hyperlink{MLP}{MLP}]{Multi-Layer Perceptron}
\newacro{MNIST}[\AC@hyperlink{MNIST}{MNIST}]{Mixed National Institute of Standards and Technology}
\newacro{NAG}[\AC@hyperlink{NAG}{NAG}]{Nesterov accelerated Gradient}
\newacro{NDL}[\AC@hyperlink{NDL}{NDL}]{Network Definition Language}
\newacro{NVCC}[\AC@hyperlink{NVCC}{NVCC}]{Nvidia CUDA Compiler}
\newacro{OFF}[\AC@hyperlink{OFF}{OFF}]{Object File Format}
\newacro{OpenCL}[\AC@hyperlink{OpenCL}{OpenCL}]{Open Computing Language}
\newacro{OpenMP}[\AC@hyperlink{OpenMP}{OpenMP}]{Open Multi-Processing}
\newacro{ORB}[\AC@hyperlink{ORB}{ORB}]{Oriented FAST and Rotated BRIEF}
\newacro{PCD}[\AC@hyperlink{PCD}{PCD}]{Point Cloud Data}
\newacro{PCL}[\AC@hyperlink{PCL}{PCL}]{Point Cloud Library}
\newacro{POV}[\AC@hyperlink{POV}{POV}]{Point of View}
\newacro{RAID}[\AC@hyperlink{RAID}{RAID}]{Redudant Array of Independent Disks}
\newacro{RBF}[\AC@hyperlink{RBF}{RBF}]{Radial Basis Function}
\newacro{ReLU}[\AC@hyperlink{ReLU}{ReLU}]{Rectified Linear Unit}
\newacro{PReLU}[\AC@hyperlink{PReLU}{PReLU}]{Parametric Rectified Linear Unit}
\newacro{RGB}[\AC@hyperlink{RGB}{RGB}]{Red Green and Blue}
\newacro{RGB-D}[\AC@hyperlink{RGB-D}{RGB-D}]{RGB-Depth}
\newacro{RNN}[\AC@hyperlink{RNN}{RNN}]{Recursive Neural Network}
\newacro{RMS}[\AC@hyperlink{RMS}{RMS}]{Root Mean Squared}
\newacro{SGD}[\AC@hyperlink{SGD}{SGD}]{Stochastic Gradient Descent}
\newacro{SIFT}[\AC@hyperlink{SIFT}{SIFT}]{Scale Invariant Feature Transform}
\newacro{SSD}[\AC@hyperlink{SSD}{SSD}]{Solid State Drive}
\newacro{SSH}[\AC@hyperlink{SSH}{SSH}]{Secure Shell}
\newacro{SVM}[\AC@hyperlink{SVM}{SVM}]{Support Vector Machine}
\newacro{SURF}[\AC@hyperlink{SURF}{SURF}]{Speeded Up Robust Features}
\newacro{TSDF}[\AC@hyperlink{TSDF}{TSDF}]{Truncated Signed Distance Function}
\citation{RFB15a}
\abx@aux@cite{RFB15a}
\abx@aux@segm{0}{0}{RFB15a}
\@writefile{toc}{\contentsline {chapter}{\numberline {1}Introduction}{1}{chapter.8}}
\@writefile{lof}{\addvspace {10\p@ }}
\@writefile{lot}{\addvspace {10\p@ }}
\@writefile{toc}{\contentsline {section}{\numberline {1.1}Outline}{1}{section.9}}
\@writefile{toc}{\contentsline {section}{\numberline {1.2}Motivation}{1}{section.10}}
\@writefile{toc}{\contentsline {section}{\numberline {1.3}Related works}{2}{section.11}}
\@writefile{toc}{\contentsline {subsection}{\numberline {1.3.1}Segmentation in general}{2}{subsection.12}}
\@writefile{toc}{\contentsline {subsection}{\numberline {1.3.2}Segmentation with Convolutional Neural Networks}{2}{subsection.13}}
\@writefile{toc}{\contentsline {subsection}{\numberline {1.3.3}People segmentation}{2}{subsection.14}}
\@writefile{toc}{\contentsline {subsection}{\numberline {1.3.4}why convolutional for images}{2}{subsection.15}}
\@writefile{toc}{\contentsline {section}{\numberline {1.4}Datasets comparison}{2}{section.16}}
\@writefile{toc}{\contentsline {chapter}{\numberline {2}Convolutional Neural Networks}{3}{chapter.17}}
\@writefile{lof}{\addvspace {10\p@ }}
\@writefile{lot}{\addvspace {10\p@ }}
\newlabel{neuraltheo}{{2}{3}{Convolutional Neural Networks}{chapter.17}{}}
\@writefile{toc}{\contentsline {section}{\numberline {2.1}Introduction}{3}{section.18}}
\AC@undonewlabel{acro:ANN}
\newlabel{acro:ANN}{{2.1}{3}{Introduction}{section*.19}{}}
\acronymused{ANN}
\AC@undonewlabel{acro:CNN}
\newlabel{acro:CNN}{{2.1}{3}{Introduction}{section*.20}{}}
\acronymused{CNN}
\acronymused{CNN}
\@writefile{toc}{\contentsline {section}{\numberline {2.2}\acs {CNN} architecture}{3}{section.21}}
\acronymused{CNN}
\acronymused{CNN}
\@writefile{toc}{\contentsline {subsection}{\numberline {2.2.1}Convolution}{3}{subsection.22}}
\acronymused{CNN}
\acronymused{ANN}
\acronymused{CNN}
\citation{Csaji2001}
\abx@aux@cite{Csaji2001}
\abx@aux@segm{0}{0}{Csaji2001}
\@writefile{toc}{\contentsline {subsubsection}{Local Receptive Fields}{4}{section*.23}}
\acronymused{CNN}
\@writefile{toc}{\contentsline {subsubsection}{Shared weights}{4}{section*.24}}
\acronymused{CNN}
\acronymused{CNN}
\@writefile{toc}{\contentsline {subsection}{\numberline {2.2.2}Activation}{4}{subsection.25}}
\citation{bingxu}
\abx@aux@cite{bingxu}
\abx@aux@segm{0}{0}{bingxu}
\citation{kaiminghe}
\abx@aux@cite{kaiminghe}
\abx@aux@segm{0}{0}{kaiminghe}
\acronymused{ReLU}
\acronymused{CNN}
\acronymused{ReLU}
\acronymused{ReLU}
\acronymused{ReLU}
\acronymused{PReLU}
\@writefile{toc}{\contentsline {subsection}{\numberline {2.2.3}Pooling}{5}{subsection.26}}
\acronymused{CNN}
\citation{cuda}
\abx@aux@cite{cuda}
\abx@aux@segm{0}{0}{cuda}
\@writefile{toc}{\contentsline {chapter}{\numberline {3}Methodology}{7}{chapter.27}}
\@writefile{lof}{\addvspace {10\p@ }}
\@writefile{lot}{\addvspace {10\p@ }}
\@writefile{toc}{\contentsline {section}{\numberline {3.1}Libraries and frameworks}{7}{section.28}}
\newlabel{libraries}{{3.1}{7}{Libraries and frameworks}{section.28}{}}
\@writefile{toc}{\contentsline {subsection}{\numberline {3.1.1}CUDA}{7}{subsection.29}}
\acronymused{CUDA}
\acronymused{API}
\acronymused{GPGPU}
\acronymused{CPU}
\acronymused{GPU}
\acronymused{CUDA}
\acronymused{GPU}
\acronymused{CUDA}
\acronymused{CPU}
\acronymused{GPU}
\acronymused{CUDA}
\acronymused{CUDA}
\@writefile{lof}{\contentsline {figure}{\numberline {3.1}{\ignorespaces CUDA hierarchy of threads, blocks and grids with the typical program execution model\relax }}{8}{figure.caption.30}}
\providecommand*\caption@xref[2]{\@setref\relax\@undefined{#1}}
\newlabel{fig:jphysd394022f02online}{{3.1}{8}{CUDA hierarchy of threads, blocks and grids with the typical program execution model\relax }{figure.caption.30}{}}
\acronymused{CUDA}
\acronymused{GPU}
\acronymused{NVCC}
\acronymused{GPU}
\acronymused{CPU}
\acronymused{CUDA}
\acronymused{GPU}
\acronymused{CUDA}
\@writefile{lof}{\contentsline {figure}{\numberline {3.2}{\ignorespaces \acs {CUDA} SDK stack (Green for \acs {GPU} parts and blue for \acs {CPU} ones).\relax }}{8}{figure.caption.31}}
\acronymused{CUDA}
\acronymused{GPU}
\acronymused{CPU}
\newlabel{fig:cudasdk-retoque}{{3.2}{8}{\acs {CUDA} SDK stack (Green for \acs {GPU} parts and blue for \acs {CPU} ones).\relax }{figure.caption.31}{}}
\citation{tensor}
\abx@aux@cite{tensor}
\abx@aux@segm{0}{0}{tensor}
\@writefile{toc}{\contentsline {subsubsection}{cuDNN}{9}{section*.32}}
\acronymused{CUDA}
\acronymused{GPU}
\acronymused{CUDA}
\acronymused{cuDNN}
\acronymused{GPU}
\acronymused{CNTK}
\@writefile{toc}{\contentsline {subsection}{\numberline {3.1.2}Tensorflow}{9}{subsection.33}}
\newlabel{tensorflowsec}{{3.1.2}{9}{Tensorflow}{subsection.33}{}}
\acronymused{AI}
\acronymused{GPU}
\@writefile{lof}{\contentsline {figure}{\numberline {3.3}{\ignorespaces Example of Tensors\relax }}{9}{figure.caption.34}}
\newlabel{fig:tensors}{{3.3}{9}{Example of Tensors\relax }{figure.caption.34}{}}
\AC@undonewlabel{acro:API}
\newlabel{acro:API}{{3.1.2}{9}{Tensorflow}{section*.35}{}}
\acronymused{API}
\AC@undonewlabel{acro:CPU}
\newlabel{acro:CPU}{{3.1.2}{9}{Tensorflow}{section*.36}{}}
\acronymused{CPU}
\AC@undonewlabel{acro:GPU}
\newlabel{acro:GPU}{{3.1.2}{9}{Tensorflow}{section*.37}{}}
\acronymused{GPU}
\acronymused{GPU}
\citation{keras}
\abx@aux@cite{keras}
\abx@aux@segm{0}{0}{keras}
\@writefile{toc}{\contentsline {subsection}{\numberline {3.1.3}Keras}{10}{subsection.38}}
\newlabel{sec:keras}{{3.1.3}{10}{Keras}{subsection.38}{}}
\acronymused{CNTK}
\newlabel{lst:keras1}{{3.1}{10}{Simple Keras sequential model}{lstlisting.43}{}}
\@writefile{lol}{\contentsline {lstlisting}{\numberline {3.1}Simple Keras sequential model}{10}{lstlisting.43}}
\newlabel{line:kerassize}{{5}{10}{Simple Keras sequential model}{lstnumber.48}{}}
\acronymused{3D}
\citation{tieleman2012lecture}
\abx@aux@cite{tieleman2012lecture}
\abx@aux@segm{0}{0}{tieleman2012lecture}
\citation{kingma2014adam}
\abx@aux@cite{kingma2014adam}
\abx@aux@segm{0}{0}{kingma2014adam}
\citation{dozat2016incorporating}
\abx@aux@cite{dozat2016incorporating}
\abx@aux@segm{0}{0}{dozat2016incorporating}
\@writefile{toc}{\contentsline {subsubsection}{Optimizer}{11}{section*.53}}
\acronymused{SGD}
\acronymused{RNN}
\acronymused{Adam}
\acronymused{NAG}
\@writefile{toc}{\contentsline {subsubsection}{Loss function}{12}{section*.62}}
\@writefile{toc}{\contentsline {subsubsection}{Metrics}{12}{section*.63}}
\@writefile{toc}{\contentsline {subsubsection}{Compiling example}{12}{section*.64}}
\newlabel{lst:compilekeras}{{3.2}{12}{Keras model compilation example}{lstlisting.65}{}}
\@writefile{lol}{\contentsline {lstlisting}{\numberline {3.2}Keras model compilation example}{12}{lstlisting.65}}
\newlabel{line:loss}{{3}{12}{Keras model compilation example}{lstnumber.68}{}}
\newlabel{line:metric}{{4}{12}{Keras model compilation example}{lstnumber.69}{}}
\@writefile{toc}{\contentsline {subsubsection}{Fit}{13}{section*.70}}
\newlabel{text:verbose}{{5}{13}{Fit}{Item.75}{}}
\acronymused{CPU}
\acronymused{GPU}
\citation{tensorboardref}
\abx@aux@cite{tensorboardref}
\abx@aux@segm{0}{0}{tensorboardref}
\@writefile{toc}{\contentsline {subsubsection}{Callbacks}{14}{section*.79}}
\newlabel{sec:callbacks}{{3.1.3}{14}{Callbacks}{section*.79}{}}
\newlabel{text:mode}{{1}{14}{Callbacks}{Item.80}{}}
\citation{developers2013numpy}
\abx@aux@cite{developers2013numpy}
\abx@aux@segm{0}{0}{developers2013numpy}
\@writefile{toc}{\contentsline {subsubsection}{Example of fit and callbacks}{15}{section*.85}}
\newlabel{lst:fitkeras}{{3.3}{15}{Example of callbacks and fit\_generator in Keras}{lstlisting.86}{}}
\@writefile{lol}{\contentsline {lstlisting}{\numberline {3.3}Example of callbacks and fit\_generator in Keras}{15}{lstlisting.86}}
\newlabel{line:callbacks}{{1}{15}{Example of callbacks and fit\_generator in Keras}{lstnumber.87}{}}
\newlabel{line:earlyloss}{{3}{15}{Example of callbacks and fit\_generator in Keras}{lstnumber.89}{}}
\newlabel{line:kerasfitgenerator}{{25}{15}{Example of callbacks and fit\_generator in Keras}{lstnumber.111}{}}
\citation{pedregosa2011scikit}
\abx@aux@cite{pedregosa2011scikit}
\abx@aux@segm{0}{0}{pedregosa2011scikit}
\citation{van2014scikit}
\abx@aux@cite{van2014scikit}
\abx@aux@segm{0}{0}{van2014scikit}
\citation{mckinney2014pandas}
\abx@aux@cite{mckinney2014pandas}
\abx@aux@segm{0}{0}{mckinney2014pandas}
\citation{hunter2007matplotlib}
\abx@aux@cite{hunter2007matplotlib}
\abx@aux@segm{0}{0}{hunter2007matplotlib}
\@writefile{toc}{\contentsline {subsection}{\numberline {3.1.4}Other packages}{16}{subsection.120}}
\newlabel{lst:numpyexample}{{3.4}{16}{Numpy usage in data augmentation}{lstlisting.122}{}}
\@writefile{lol}{\contentsline {lstlisting}{\numberline {3.4}Numpy usage in data augmentation}{16}{lstlisting.122}}
\acronymused{2D}
\@writefile{toc}{\contentsline {section}{\numberline {3.2}Technologies}{16}{section.132}}
\@writefile{toc}{\contentsline {section}{\numberline {3.3}Development software environment}{16}{section.133}}
\newlabel{sec:software}{{3.3}{16}{Development software environment}{section.133}{}}
\citation{dockerref}
\abx@aux@cite{dockerref}
\abx@aux@segm{0}{0}{dockerref}
\@writefile{toc}{\contentsline {subsection}{\numberline {3.3.1}First stages of development environment}{17}{subsection.134}}
\@writefile{lof}{\contentsline {figure}{\numberline {3.4}{\ignorespaces Debugger stopped in a breakpoint displaying variables values\relax }}{17}{figure.caption.135}}
\newlabel{fig:screenshot001}{{3.4}{17}{Debugger stopped in a breakpoint displaying variables values\relax }{figure.caption.135}{}}
\acronymused{CNN}
\@writefile{toc}{\contentsline {subsection}{\numberline {3.3.2}Training software environment}{17}{subsection.136}}
\citation{whatisdocker}
\abx@aux@cite{whatisdocker}
\abx@aux@segm{0}{0}{whatisdocker}
\citation{whatisdocker}
\abx@aux@segm{0}{0}{whatisdocker}
\@writefile{lof}{\contentsline {figure}{\numberline {3.5}{\ignorespaces Docker arquitecture compared to traditional linux containers.}}{18}{figure.caption.137}}
\newlabel{fig:docker}{{3.5}{18}{Docker arquitecture compared to traditional linux containers}{figure.caption.137}{}}
\@writefile{toc}{\contentsline {subsection}{\numberline {3.3.3}Miscellaneous}{18}{subsection.138}}
\acronymused{GUI}
\citation{DevBox}
\abx@aux@cite{DevBox}
\abx@aux@segm{0}{0}{DevBox}
\@writefile{toc}{\contentsline {section}{\numberline {3.4}Hardware}{20}{section.140}}
\newlabel{sec:hardware}{{3.4}{20}{Hardware}{section.140}{}}
\acronymused{GPU}
\acronymused{GPU}
\acronymused{CUDA}
\AC@undonewlabel{acro:PCL}
\newlabel{acro:PCL}{{3.4}{20}{Hardware}{section*.141}{}}
\acronymused{PCL}
\AC@undonewlabel{acro:GCC}
\newlabel{acro:GCC}{{3.4}{20}{Hardware}{section*.142}{}}
\acronymused{GCC}
\acronymused{CUDA}
\acronymused{CUDA}
\acronymused{CUDA}
\acronymused{RAID}
\acronymused{HDD}
\acronymused{SSD}
\@writefile{lot}{\contentsline {table}{\numberline {3.1}{\ignorespaces Hardware specifications of Asimov.\relax }}{20}{table.caption.143}}
\newlabel{table:asimov}{{3.1}{20}{Hardware specifications of Asimov.\relax }{table.caption.143}{}}
\AC@undonewlabel{acro:SSH}
\newlabel{acro:SSH}{{3.4}{21}{Hardware}{section*.144}{}}
\acronymused{SSH}
\acronymused{SSH}
\acronymused{SSH}
\acronymused{SSH}
\AC@undonewlabel{acro:RAID}
\newlabel{acro:RAID}{{3.4}{21}{Hardware}{section*.145}{}}
\acronymused{RAID}
\AC@undonewlabel{acro:HDD}
\newlabel{acro:HDD}{{3.4}{21}{Hardware}{section*.146}{}}
\acronymused{HDD}
\AC@undonewlabel{acro:SSD}
\newlabel{acro:SSD}{{3.4}{21}{Hardware}{section*.147}{}}
\acronymused{SSD}
\@writefile{toc}{\contentsline {chapter}{\numberline {4}People segmentation with U-Net}{23}{chapter.148}}
\@writefile{lof}{\addvspace {10\p@ }}
\@writefile{lot}{\addvspace {10\p@ }}
\acronymused{CNN}
\citation{RFB15a}
\abx@aux@segm{0}{0}{RFB15a}
\citation{RFB15a}
\abx@aux@segm{0}{0}{RFB15a}
\@writefile{toc}{\contentsline {section}{\numberline {4.1}Introduction}{24}{section.149}}
\@writefile{toc}{\contentsline {section}{\numberline {4.2}Dataset preprocessing}{24}{section.150}}
\@writefile{lof}{\contentsline {figure}{\numberline {4.1}{\ignorespaces Image stitching done via Python script\relax }}{24}{figure.caption.151}}
\newlabel{fig:example+color}{{4.1}{24}{Image stitching done via Python script\relax }{figure.caption.151}{}}
\@writefile{toc}{\contentsline {section}{\numberline {4.3}U-Net}{25}{section.152}}
\@writefile{lof}{\contentsline {figure}{\numberline {4.2}{\ignorespaces U-Net Architecture.}}{25}{figure.caption.153}}
\newlabel{fig:u-net-architecture}{{4.2}{25}{U-Net Architecture}{figure.caption.153}{}}
\@writefile{toc}{\contentsline {section}{\numberline {4.4}data augmentation}{25}{section.154}}
\@writefile{toc}{\contentsline {section}{\numberline {4.5}Layers}{26}{section.155}}
\newlabel{lst:}{{4.5}{26}{}{lstlisting.156}{}}
\@writefile{toc}{\contentsline {subsection}{\numberline {4.5.1}Convolution}{26}{subsection.168}}
\@writefile{toc}{\contentsline {subsection}{\numberline {4.5.2}Batch normalization}{26}{subsection.169}}
\@writefile{toc}{\contentsline {subsection}{\numberline {4.5.3}Activation}{26}{subsection.170}}
\@writefile{toc}{\contentsline {subsection}{\numberline {4.5.4}Pooling}{26}{subsection.171}}
\@writefile{toc}{\contentsline {subsection}{\numberline {4.5.5}Upsampling}{26}{subsection.172}}
\@writefile{toc}{\contentsline {subsection}{\numberline {4.5.6}Concatenation}{26}{subsection.173}}
\@writefile{toc}{\contentsline {section}{\numberline {4.6}Models}{26}{section.174}}
\@writefile{toc}{\contentsline {section}{\numberline {4.7}Loss functions}{26}{section.175}}
\@writefile{toc}{\contentsline {chapter}{\numberline {A}U - NET source code}{27}{appendix.176}}
\@writefile{lof}{\addvspace {10\p@ }}
\@writefile{lot}{\addvspace {10\p@ }}
\@writefile{toc}{\contentsline {chapter}{\numberline {B}Packages used}{29}{appendix.177}}
\@writefile{lof}{\addvspace {10\p@ }}
\@writefile{lot}{\addvspace {10\p@ }}
\@writefile{toc}{\contentsline {chapter}{\numberline {C}Concepts}{31}{appendix.178}}
\@writefile{lof}{\addvspace {10\p@ }}
\@writefile{lot}{\addvspace {10\p@ }}
\@writefile{toc}{\contentsline {section}{\numberline {C.1}Momentum}{31}{section.179}}
\newlabel{sec:momentum}{{C.1}{31}{Momentum}{section.179}{}}
\@writefile{lof}{\contentsline {figure}{\numberline {C.1}{\ignorespaces Left side without momentum. Right side with momentum\relax }}{31}{figure.caption.180}}
\newlabel{fig:momentum}{{C.1}{31}{Left side without momentum. Right side with momentum\relax }{figure.caption.180}{}}
\@writefile{toc}{\contentsline {section}{\numberline {C.2}Nesterov accelerated gradient}{31}{section.181}}
\newlabel{sec:nesterov}{{C.2}{31}{Nesterov accelerated gradient}{section.181}{}}
\citation{learningrates}
\abx@aux@cite{learningrates}
\abx@aux@segm{0}{0}{learningrates}
\citation{learningrates}
\abx@aux@segm{0}{0}{learningrates}
\@writefile{lof}{\contentsline {figure}{\numberline {C.2}{\ignorespaces Nesterov updates compared to normal momentum\relax }}{32}{figure.caption.182}}
\newlabel{fig:nesterov}{{C.2}{32}{Nesterov updates compared to normal momentum\relax }{figure.caption.182}{}}
\@writefile{toc}{\contentsline {section}{\numberline {C.3}Learning rate}{32}{section.183}}
\newlabel{sec:learningrate}{{C.3}{32}{Learning rate}{section.183}{}}
\newlabel{text:adagrad}{{C.3}{32}{Learning rate}{section.183}{}}
\@writefile{lof}{\contentsline {figure}{\numberline {C.3}{\ignorespaces Comparison between diverse learning rate schedules and adaptive learning methods.}}{33}{figure.caption.184}}
\newlabel{fig:learning-rate}{{C.3}{33}{Comparison between diverse learning rate schedules and adaptive learning methods}{figure.caption.184}{}}
\@writefile{toc}{\contentsline {chapter}{Bibliography}{35}{appendix*.185}}
\abx@aux@refcontextdefaultsdone
\abx@aux@defaultrefcontext{0}{RFB15a}{none/global//global/global}
\abx@aux@defaultrefcontext{0}{Csaji2001}{none/global//global/global}
\abx@aux@defaultrefcontext{0}{bingxu}{none/global//global/global}
\abx@aux@defaultrefcontext{0}{cuda}{none/global//global/global}
\abx@aux@defaultrefcontext{0}{tensor}{none/global//global/global}
\abx@aux@defaultrefcontext{0}{keras}{none/global//global/global}
\abx@aux@defaultrefcontext{0}{tieleman2012lecture}{none/global//global/global}
\abx@aux@defaultrefcontext{0}{kingma2014adam}{none/global//global/global}
\abx@aux@defaultrefcontext{0}{dozat2016incorporating}{none/global//global/global}
\abx@aux@defaultrefcontext{0}{tensorboardref}{none/global//global/global}
\abx@aux@defaultrefcontext{0}{developers2013numpy}{none/global//global/global}
\abx@aux@defaultrefcontext{0}{pedregosa2011scikit}{none/global//global/global}
\abx@aux@defaultrefcontext{0}{van2014scikit}{none/global//global/global}
\abx@aux@defaultrefcontext{0}{mckinney2014pandas}{none/global//global/global}
\abx@aux@defaultrefcontext{0}{hunter2007matplotlib}{none/global//global/global}
\abx@aux@defaultrefcontext{0}{dockerref}{none/global//global/global}
\abx@aux@defaultrefcontext{0}{whatisdocker}{none/global//global/global}
\abx@aux@defaultrefcontext{0}{learningrates}{none/global//global/global}
